{"photos": {"page": 1, "pages": 4725, "perpage": 50, "total": "236239", "photo": [{"id": "34837777284", "owner": "60867107@N00", "secret": "6f16853f02", "server": "4238", "farm": 5, "title": "Playing in the Pool", "ispublic": 1, "isfriend": 0, "isfamily": 0}, {"id": "34869468433", "owner": "131667720@N04", "secret": "d03ffef9da", "server": "4277", "farm": 5, "title": "Remains", "ispublic": 1, "isfriend": 0, "isfamily": 0}, {"id": "34869436463", "owner": "16652611@N08", "secret": "d416cd94d1", "server": "4044", "farm": 5, "title": "Aira Force", "ispublic": 1, "isfriend": 0, "isfamily": 0}, {"id": "35678522585", "owner": "144709802@N07", "secret": "d67896f09d", "server": "4266", "farm": 5, "title": "sunrise", "ispublic": 1, "isfriend": 0, "isfamily": 0}, {"id": "34869422133", "owner": "150544082@N05", "secret": "113984341b", "server": "4004", "farm": 5, "title": "1", "ispublic": 1, "isfriend": 0, "isfamily": 0}, {"id": "35291553190", "owner": "150544082@N05", "secret": "ab3596a3f6", "server": "4082", "farm": 5, "title": "2", "ispublic": 1, "isfriend": 0, "isfamily": 0}, {"id": "34869414973", "owner": "150544082@N05", "secret": "135ef61cd1", "server": "4092", "farm": 5, "title": "3", "ispublic": 1, "isfriend": 0, "isfamily": 0}, {"id": "35678499345", "owner": "150544082@N05", "secret": "85037e7041", "server": "4212", "farm": 5, "title": "4", "ispublic": 1, "isfriend": 0, "isfamily": 0}, {"id": "34869409233", "owner": "150544082@N05", "secret": "69c690c150", "server": "4278", "farm": 5, "title": "5", "ispublic": 1, "isfriend": 0, "isfamily": 0}, {"id": "34869406473", "owner": "150544082@N05", "secret": "05c6405b71", "server": "4002", "farm": 5, "title": "6", "ispublic": 1, "isfriend": 0, "isfamily": 0}, {"id": "34869402493", "owner": "150544082@N05", "secret": "56fcf0342c", "server": "4057", "farm": 5, "title": "7", "ispublic": 1, "isfriend": 0, "isfamily": 0}, {"id": "35639171596", "owner": "150544082@N05", "secret": "e3950beb4d", "server": "4288", "farm": 5, "title": "8", "ispublic": 1, "isfriend": 0, "isfamily": 0}, {"id": "34869396703", "owner": "150544082@N05", "secret": "10132b537a", "server": "4253", "farm": 5, "title": "9", "ispublic": 1, "isfriend": 0, "isfamily": 0}, {"id": "35291537180", "owner": "150544082@N05", "secret": "c479dc3189", "server": "4281", "farm": 5, "title": "10", "ispublic": 1, "isfriend": 0, "isfamily": 0}, {"id": "35678488905", "owner": "150544082@N05", "secret": "a020d2511d", "server": "4253", "farm": 5, "title": "11", "ispublic": 1, "isfriend": 0, "isfamily": 0}, {"id": "35291531400", "owner": "150544082@N05", "secret": "cca142ec4b", "server": "4013", "farm": 5, "title": "12", "ispublic": 1, "isfriend": 0, "isfamily": 0}, {"id": "35291529870", "owner": "150544082@N05", "secret": "74c7a4754b", "server": "4070", "farm": 5, "title": "13", "ispublic": 1, "isfriend": 0, "isfamily": 0}, {"id": "35678483365", "owner": "150544082@N05", "secret": "a410cc6325", "server": "4101", "farm": 5, "title": "14", "ispublic": 1, "isfriend": 0, "isfamily": 0}, {"id": "35291527190", "owner": "150544082@N05", "secret": "e2826bcc58", "server": "4282", "farm": 5, "title": "15", "ispublic": 1, "isfriend": 0, "isfamily": 0}, {"id": "35509641332", "owner": "150544082@N05", "secret": "a0c0db58bc", "server": "4241", "farm": 5, "title": "16", "ispublic": 1, "isfriend": 0, "isfamily": 0}, {"id": "35509639242", "owner": "150544082@N05", "secret": "724ae5f82b", "server": "4229", "farm": 5, "title": "17", "ispublic": 1, "isfriend": 0, "isfamily": 0}, {"id": "34837687464", "owner": "150544082@N05", "secret": "b1989b4271", "server": "4004", "farm": 5, "title": "18", "ispublic": 1, "isfriend": 0, "isfamily": 0}, {"id": "35509636542", "owner": "150544082@N05", "secret": "87349fc8fc", "server": "4094", "farm": 5, "title": "The Oktoberfest (2015)", "ispublic": 1, "isfriend": 0, "isfamily": 0}, {"id": "34869349963", "owner": "74120331@N07", "secret": "f3589d4017", "server": "4114", "farm": 5, "title": "Vallee des Darots (HP028948)", "ispublic": 1, "isfriend": 0, "isfamily": 0}, {"id": "34869329323", "owner": "117533844@N07", "secret": "5dceeca78e", "server": "4278", "farm": 5, "title": "Split and Weathered", "ispublic": 1, "isfriend": 0, "isfamily": 0}, {"id": "34869318273", "owner": "144709802@N07", "secret": "ddb839ec68", "server": "4280", "farm": 5, "title": "sunrise-4", "ispublic": 1, "isfriend": 0, "isfamily": 0}, {"id": "34869293403", "owner": "36926824@N02", "secret": "63527cb5f0", "server": "4049", "farm": 5, "title": "Wild Terrapin", "ispublic": 1, "isfriend": 0, "isfamily": 0}, {"id": "35639058486", "owner": "141533164@N08", "secret": "ea115d5740", "server": "4079", "farm": 5, "title": "Ghent - River Leie Reflections", "ispublic": 1, "isfriend": 0, "isfamily": 0}, {"id": "35638933116", "owner": "60387737@N02", "secret": "4823d90553", "server": "4092", "farm": 5, "title": "All the leaves are brown...", "ispublic": 1, "isfriend": 0, "isfamily": 0}, {"id": "35547542721", "owner": "47439051@N08", "secret": "154a22deaf", "server": "4285", "farm": 5, "title": "img087 Wissahickon River, PA", "ispublic": 1, "isfriend": 0, "isfamily": 0}, {"id": "35547539461", "owner": "47439051@N08", "secret": "7b7620707c", "server": "4083", "farm": 5, "title": "img087a Send me a postcard", "ispublic": 1, "isfriend": 0, "isfamily": 0}, {"id": "35544990091", "owner": "134843869@N08", "secret": "c259803cd2", "server": "4013", "farm": 5, "title": "\u00d6xar\u00e1rfoss", "ispublic": 1, "isfriend": 0, "isfamily": 0}, {"id": "35547956081", "owner": "146201368@N03", "secret": "b9b89ac165", "server": "4213", "farm": 5, "title": "Suspension bridge", "ispublic": 1, "isfriend": 0, "isfamily": 0}, {"id": "35638689096", "owner": "80060504@N05", "secret": "2f5f30ca1c", "server": "4148", "farm": 5, "title": "Daybreak", "ispublic": 1, "isfriend": 0, "isfamily": 0}, {"id": "34868945993", "owner": "51092719@N00", "secret": "c28f0846cb", "server": "4206", "farm": 5, "title": "Zakim Bridge", "ispublic": 1, "isfriend": 0, "isfamily": 0}, {"id": "35678070065", "owner": "51092719@N00", "secret": "e0992c14c0", "server": "4131", "farm": 5, "title": "Charlestown Bridge", "ispublic": 1, "isfriend": 0, "isfamily": 0}, {"id": "34868945833", "owner": "51092719@N00", "secret": "a8c875fbeb", "server": "4132", "farm": 5, "title": "Under the Zakim Bridge", "ispublic": 1, "isfriend": 0, "isfamily": 0}, {"id": "34868847573", "owner": "97996499@N00", "secret": "d09b059e8b", "server": "4018", "farm": 5, "title": "Columbia River", "ispublic": 1, "isfriend": 0, "isfamily": 0}, {"id": "35638508366", "owner": "51035563665@N01", "secret": "43a020a9c9", "server": "4235", "farm": 5, "title": "Moult", "ispublic": 1, "isfriend": 0, "isfamily": 0}, {"id": "35509093752", "owner": "24823165@N00", "secret": "de6c71a01a", "server": "4212", "farm": 5, "title": "Salmon Overlook", "ispublic": 1, "isfriend": 0, "isfamily": 0}, {"id": "35638407736", "owner": "7871400@N03", "secret": "6585d91cf9", "server": "4034", "farm": 5, "title": "Clay Cliffs", "ispublic": 1, "isfriend": 0, "isfamily": 0}, {"id": "35638397416", "owner": "7871400@N03", "secret": "a31a694dba", "server": "4072", "farm": 5, "title": "Clay Cliffs", "ispublic": 1, "isfriend": 0, "isfamily": 0}, {"id": "34837130164", "owner": "38056971@N06", "secret": "9cf6f12bc7", "server": "4265", "farm": 5, "title": "Tavy Cleave Falls", "ispublic": 1, "isfriend": 0, "isfamily": 0}, {"id": "35290362820", "owner": "79613854@N05", "secret": "e01102826e", "server": "4138", "farm": 5, "title": "River Soar", "ispublic": 1, "isfriend": 0, "isfamily": 0}, {"id": "34868181903", "owner": "79613854@N05", "secret": "15c12aabdd", "server": "4053", "farm": 5, "title": "Grand Union Canal", "ispublic": 1, "isfriend": 0, "isfamily": 0}, {"id": "35508254172", "owner": "79613854@N05", "secret": "7e0d9e067d", "server": "4280", "farm": 5, "title": "Bridge over the weir", "ispublic": 1, "isfriend": 0, "isfamily": 0}, {"id": "34836374204", "owner": "79613854@N05", "secret": "4bf6438392", "server": "4068", "farm": 5, "title": "Friar Mills", "ispublic": 1, "isfriend": 0, "isfamily": 0}, {"id": "35638392446", "owner": "51035563665@N01", "secret": "033cb04dc4", "server": "4136", "farm": 5, "title": "Fish shadows", "ispublic": 1, "isfriend": 0, "isfamily": 0}, {"id": "34837122994", "owner": "51035563665@N01", "secret": "98df8e0667", "server": "4074", "farm": 5, "title": "Swimming", "ispublic": 1, "isfriend": 0, "isfamily": 0}, {"id": "35508953642", "owner": "50393970@N06", "secret": "44ff3b2f5b", "server": "4044", "farm": 5, "title": "Thames and Literature", "ispublic": 1, "isfriend": 0, "isfamily": 0}]}, "stat": "ok"}